{
  "dependencies": {
    "@material-ui/core": "^4.11.0",
    "@material-ui/icons": "^4.9.1",
    "@material-ui/lab": "^4.0.0-alpha.56",
    "@testing-library/jest-dom": "^5.11.4",
    "@testing-library/react": "^11.1.0",
    "@testing-library/user-event": "^12.1.10",
    "clsx": "^1.1.1",
    "formik": "^2.2.5",
    "notistack": "^1.0.1",
    "react": "^17.0.1",
    "react-dom": "^17.0.1",
    "react-router-dom": "^5.2.0",
    "react-scripts": "4.0.0",
    "uuid": "^8.3.1",
    "web-vitals": "^0.2.4",
    "yup": "^0.29.3"
  }
}